<?xml version="1.0" encoding="UTF-8" standalone="no"?>
<svg
   xmlns:dc="http://purl.org/dc/elements/1.1/"
   xmlns:cc="http://creativecommons.org/ns#"
   xmlns:rdf="http://www.w3.org/1999/02/22-rdf-syntax-ns#"
   xmlns:svg="http://www.w3.org/2000/svg"
   xmlns="http://www.w3.org/2000/svg"
   xmlns:sodipodi="http://sodipodi.sourceforge.net/DTD/sodipodi-0.dtd"
   xmlns:inkscape="http://www.inkscape.org/namespaces/inkscape"
   width="32"
   height="32"
   viewBox="0 0 32 32"
   fill="none"
   version="1.1"
   id="svg893"
   sodipodi:docname="present-white.svg"
   inkscape:version="0.92.4 (5da689c313, 2019-01-14)">
  <metadata
     id="metadata899">
    <rdf:RDF>
      <cc:Work
         rdf:about="">
        <dc:format>image/svg+xml</dc:format>
        <dc:type
           rdf:resource="http://purl.org/dc/dcmitype/StillImage" />
        <dc:title></dc:title>
      </cc:Work>
    </rdf:RDF>
  </metadata>
  <defs
     id="defs897" />
  <sodipodi:namedview
     pagecolor="#ffffff"
     bordercolor="#666666"
     borderopacity="1"
     objecttolerance="10"
     gridtolerance="10"
     guidetolerance="10"
     inkscape:pageopacity="0"
     inkscape:pageshadow="2"
     inkscape:window-width="716"
     inkscape:window-height="480"
     id="namedview895"
     showgrid="false"
     inkscape:zoom="26.5"
     inkscape:cx="16"
     inkscape:cy="16"
     inkscape:window-x="0"
     inkscape:window-y="0"
     inkscape:window-maximized="1"
     inkscape:current-layer="svg893" />
  <path
     d="M32.0004 25.1617V31.2626H0.000411987V25.1617H25.9706C25.9826 23.8709 25.7678 22.4119 24.9509 21.3352C24.2308 20.3858 23.1218 19.8525 21.6523 19.741C21.5322 19.9682 21.3011 20.1279 21.0261 20.1279H19.7955C19.3989 20.1279 19.0773 19.8066 19.0773 19.4096C19.0773 19.0127 19.3989 18.691 19.7955 18.691H21.0261C21.3473 18.691 21.6092 18.9058 21.7008 19.1964C23.3296 19.3199 24.5695 19.9255 25.3879 21.005C26.2969 22.2045 26.5358 23.7804 26.5245 25.1606H32.0004V25.1617ZM16.0004 14.0876C19.6875 14.0876 22.6766 11.0989 22.6766 7.41139C22.6766 3.72389 19.6875 0.735596 16.0004 0.735596C12.3129 0.735596 9.32423 3.72428 9.32423 7.41178C9.32423 11.0993 12.3129 14.0876 16.0004 14.0876ZM24.1772 21.98C23.6994 21.3495 22.9943 20.9677 22.031 20.8189C21.7451 21.0353 21.3947 21.1576 21.0261 21.1576H19.7955C18.8644 21.1576 18.1062 20.3998 18.1062 19.4679C18.1062 18.5368 18.864 17.7786 19.7955 17.7786H21.0261C21.5144 17.7786 21.963 17.9895 22.2742 18.3387C23.7328 18.5376 24.9101 19.107 25.7865 20.0343C25.7838 19.9997 25.7849 19.9643 25.7818 19.9298L25.4746 18.4012C24.7249 15.9917 22.7718 14.1105 20.3195 13.4618C19.1853 14.5199 17.6696 15.1725 16.0004 15.1725C14.3309 15.1725 12.8144 14.5195 11.6813 13.4618C8.52636 14.2958 6.18988 17.1664 6.18988 20.5789V24.2469H24.9568C24.8585 23.3042 24.5943 22.53 24.1772 21.98Z"
     fill="#111111"
     id="path891"
     style="fill:#ffffff" />
</svg>
