<svg width="32" height="32" viewBox="0 0 32 32" fill="none" xmlns="http://www.w3.org/2000/svg">
<g clip-path="url(#clip0)">
<path d="M31.4483 3.30933H0.551755C0.247203 3.30933 3.05176e-05 3.55595 3.05176e-05 3.86105V28.1369C3.05176e-05 28.442 0.247203 28.6886 0.551755 28.6886H31.4483C31.7529 28.6886 32 28.442 32 28.1369V3.86105C32 3.55595 31.7529 3.30933 31.4483 3.30933ZM5.51727 27.5852H1.10348V22.6197H5.51727V27.5852ZM5.51727 21.5162H1.10348V16.5507H5.51727V21.5162ZM5.51727 15.4473H1.10348V10.4817H5.51727V15.4473ZM5.51727 9.37829H1.10348V4.41277H5.51727V9.37829ZM20.1584 16.4646L14.0894 20.3267C13.9995 20.3835 13.8963 20.4128 13.7931 20.4128C13.7015 20.4128 13.6105 20.3902 13.5278 20.3449C13.3512 20.2478 13.2414 20.0624 13.2414 19.861V12.1369C13.2414 11.9355 13.3512 11.7502 13.5278 11.653C13.7043 11.5565 13.9195 11.5637 14.09 11.6713L20.1589 15.5333C20.3173 15.6348 20.4138 15.8103 20.4138 15.999C20.4138 16.1877 20.3173 16.3631 20.1584 16.4646ZM30.8966 27.5852H26.4828V22.6197H30.8966V27.5852ZM30.8966 21.5162H26.4828V16.5507H30.8966V21.5162ZM30.8966 15.4473H26.4828V10.4817H30.8966V15.4473ZM30.8966 9.37829H26.4828V4.41277H30.8966V9.37829Z" fill="#111111"/>
</g>
<defs>
<clipPath id="clip0">
<rect width="32" height="32" fill="white" transform="translate(3.05176e-05 -0.000976562)"/>
</clipPath>
</defs>
</svg>
